Store,StoreType,Assortment,CompetitionDistance,CompetitionOpenSinceMonth,CompetitionOpenSinceYear,Promo2,Promo2SinceWeek,Promo2SinceYear,PromoInterval
1,c,1,1270,9,2008,0,,,
2,a,1,570,11,2007,1,13,2010,"Jan,Apr,Jul,Oct"
3,a,1,14130,12,2006,1,14,2011,"Jan,Apr,Jul,Oct"
4,c,3,620,9,2009,0,,,
5,a,1,29910,4,2015,0,,,
6,a,1,310,12,2013,0,,,
7,a,3,24000,4,2013,0,,,
8,a,1,7520,10,2014,0,,,
9,a,3,2030,8,2000,0,,,
10,a,1,3160,9,2009,0,,,
11,a,3,960,11,2011,1,1,2012,"Jan,Apr,Jul,Oct"
12,a,3,1070,,,1,13,2010,"Jan,Apr,Jul,Oct"
13,d,1,310,,,1,45,2009,"Feb,May,Aug,Nov"
14,a,1,1300,3,2014,1,40,2011,"Jan,Apr,Jul,Oct"
15,d,3,4110,3,2010,1,14,2011,"Jan,Apr,Jul,Oct"
16,a,3,3270,,,0,,,
17,a,1,50,12,2005,1,26,2010,"Jan,Apr,Jul,Oct"
18,d,3,13840,6,2010,1,14,2012,"Jan,Apr,Jul,Oct"
19,a,3,3240,,,1,22,2011,"Mar,Jun,Sept,Dec"
20,d,1,2340,5,2009,1,40,2014,"Jan,Apr,Jul,Oct"
21,c,3,550,10,1999,1,45,2009,"Jan,Apr,Jul,Oct"
22,a,1,1040,,,1,22,2012,"Jan,Apr,Jul,Oct"
23,d,1,4060,8,2005,0,,,
24,a,3,4590,3,2000,1,40,2011,"Jan,Apr,Jul,Oct"
25,c,1,430,4,2003,0,,,
26,d,1,2300,,,0,,,
27,a,1,60,1,2005,1,5,2011,"Jan,Apr,Jul,Oct"
28,a,1,1200,10,2014,1,6,2015,"Mar,Jun,Sept,Dec"
29,d,3,2170,,,0,,,
30,a,1,40,2,2014,1,10,2014,"Mar,Jun,Sept,Dec"
31,d,3,9800,7,2012,0,,,
32,a,1,2910,,,1,45,2009,"Feb,May,Aug,Nov"
33,a,3,1320,5,2013,0,,,
34,c,1,2240,9,2009,0,,,
35,d,3,7660,10,2000,1,1,2012,"Jan,Apr,Jul,Oct"
36,a,3,540,6,2003,1,40,2014,"Jan,Apr,Jul,Oct"
37,c,1,4230,12,2014,0,,,
38,d,1,1090,4,2007,0,,,
39,a,1,260,10,2006,1,31,2013,"Feb,May,Aug,Nov"
40,a,1,180,,,1,45,2009,"Feb,May,Aug,Nov"
41,d,3,1180,,,1,31,2013,"Jan,Apr,Jul,Oct"
42,a,3,290,,,1,40,2011,"Jan,Apr,Jul,Oct"
43,d,1,4880,,,1,37,2009,"Jan,Apr,Jul,Oct"
44,a,1,540,6,2011,0,,,
45,d,1,9710,2,2014,0,,,
46,c,1,1200,9,2005,1,14,2011,"Jan,Apr,Jul,Oct"
47,a,3,270,4,2013,1,14,2013,"Jan,Apr,Jul,Oct"
48,a,1,1060,5,2012,0,,,
49,d,3,18010,9,2007,0,,,
50,d,1,6260,11,2009,0,,,
51,a,3,10570,7,2013,1,9,2011,"Jan,Apr,Jul,Oct"
52,d,3,450,4,2014,1,39,2010,"Jan,Apr,Jul,Oct"
53,a,3,30360,9,2013,0,,,
54,d,3,7170,8,2014,1,5,2013,"Feb,May,Aug,Nov"
55,a,1,720,11,2004,0,,,
56,d,3,6620,3,2012,1,10,2014,"Mar,Jun,Sept,Dec"
57,d,3,420,6,2014,0,,,
58,a,3,7340,5,2008,1,27,2012,"Jan,Apr,Jul,Oct"
59,a,3,2840,6,2007,1,14,2011,"Jan,Apr,Jul,Oct"
60,d,3,5540,10,2009,0,,,
61,a,3,350,12,2007,1,1,2012,"Jan,Apr,Jul,Oct"
62,a,1,2050,,,0,,,
63,c,3,3700,6,2010,1,18,2010,"Feb,May,Aug,Nov"
64,d,3,22560,,,1,14,2013,"Jan,Apr,Jul,Oct"
65,a,3,13840,5,2010,1,1,2012,"Jan,Apr,Jul,Oct"
66,d,1,7660,,,1,37,2009,"Jan,Apr,Jul,Oct"
67,a,3,410,2,2006,0,,,
68,a,3,250,,,1,35,2012,"Mar,Jun,Sept,Dec"
69,c,3,1130,,,1,40,2011,"Jan,Apr,Jul,Oct"
70,c,3,4840,,,0,,,
71,a,1,17500,8,2008,1,37,2009,"Mar,Jun,Sept,Dec"
72,a,1,2200,12,2009,1,13,2010,"Jan,Apr,Jul,Oct"
73,a,3,1650,9,2008,0,,,
74,a,1,330,,,0,,,
75,d,3,22440,12,2013,0,,,
76,d,3,19960,3,2006,0,,,
77,d,3,1090,8,2009,1,10,2014,"Jan,Apr,Jul,Oct"
78,a,1,3510,11,2006,1,5,2013,"Feb,May,Aug,Nov"
79,a,1,3320,,,0,,,
80,d,1,7910,,,0,,,
81,a,1,2370,3,2011,1,40,2014,"Jan,Apr,Jul,Oct"
82,a,1,22390,4,2008,1,37,2009,"Jan,Apr,Jul,Oct"
83,a,1,2710,,,0,,,
84,a,3,11810,8,2014,0,,,
85,b,1,1870,10,2011,0,,,
86,a,1,480,2,2005,1,31,2013,"Jan,Apr,Jul,Oct"
87,a,1,560,12,2010,0,,,
88,a,1,10690,10,2005,0,,,
89,a,1,2380,7,2004,1,40,2014,"Jan,Apr,Jul,Oct"
90,a,1,330,11,2007,0,,,
91,c,1,2410,,,1,35,2011,"Jan,Apr,Jul,Oct"
92,c,1,240,,,1,45,2009,"Feb,May,Aug,Nov"
93,a,1,16690,,,1,14,2011,"Jan,Apr,Jul,Oct"
94,d,3,14620,,,0,,,
95,a,1,1890,10,2014,0,,,
96,a,1,8780,2,2005,1,37,2009,"Jan,Apr,Jul,Oct"
97,d,3,8980,,,0,,,
98,d,3,15140,12,2006,1,1,2012,"Jan,Apr,Jul,Oct"
99,c,3,2030,11,2003,1,22,2012,"Mar,Jun,Sept,Dec"
100,d,1,17930,,,0,,,
101,d,3,2440,,,1,22,2012,"Mar,Jun,Sept,Dec"
102,a,1,150,12,2007,1,10,2014,"Mar,Jun,Sept,Dec"
103,d,3,5210,5,2015,0,,,
104,a,1,390,6,2009,0,,,
105,a,3,6190,,,1,23,2013,"Mar,Jun,Sept,Dec"
106,a,1,1390,8,2013,0,,,
107,a,1,1930,9,2009,0,,,
108,d,3,2190,9,2003,0,,,
109,a,3,3300,11,2010,0,,,
110,a,3,46590,4,2013,0,,,
111,d,3,7890,,,1,37,2009,"Jan,Apr,Jul,Oct"
112,a,1,1630,9,2009,0,,,
113,d,3,20930,11,1999,0,,,
114,c,1,4510,,,1,48,2011,"Mar,Jun,Sept,Dec"
115,d,3,5740,4,2007,1,40,2014,"Jan,Apr,Jul,Oct"
116,a,1,680,4,2013,0,,,
117,a,1,3450,9,2011,0,,,
118,d,3,3580,9,2012,0,,,
119,a,3,2100,2,2010,0,,,
120,d,1,2290,12,2014,1,37,2009,"Jan,Apr,Jul,Oct"
121,a,1,3570,11,2009,1,36,2013,"Mar,Jun,Sept,Dec"
122,a,3,58260,4,2013,0,,,
123,a,1,16760,9,2011,0,,,
124,a,1,1410,4,2003,0,,,
125,a,1,760,12,2005,0,,,
126,d,1,3370,10,2014,1,18,2011,"Feb,May,Aug,Nov"
127,d,1,1350,12,2005,1,13,2010,"Jan,Apr,Jul,Oct"
128,d,3,2000,,,1,1,2013,"Jan,Apr,Jul,Oct"
129,a,1,2460,,,1,14,2011,"Jan,Apr,Jul,Oct"
130,c,1,900,,,1,13,2010,"Jan,Apr,Jul,Oct"
131,c,1,920,7,2015,0,,,
132,d,3,1040,,,1,27,2012,"Jan,Apr,Jul,Oct"
133,a,1,270,8,2013,1,10,2014,"Mar,Jun,Sept,Dec"
134,a,1,1200,9,2008,0,,,
135,d,1,5190,,,1,1,2013,"Jan,Apr,Jul,Oct"
136,a,3,2200,12,2010,1,22,2012,"Feb,May,Aug,Nov"
137,a,1,1730,7,2015,1,40,2014,"Jan,Apr,Jul,Oct"
138,a,3,25360,10,2014,0,,,
139,a,1,1700,1,2008,1,14,2011,"Jan,Apr,Jul,Oct"
140,a,3,1090,7,2010,1,1,2013,"Jan,Apr,Jul,Oct"
141,c,3,1540,,,1,22,2012,"Mar,Jun,Sept,Dec"
142,a,1,1090,7,2002,0,,,
143,d,1,2930,12,2002,0,,,
144,a,3,16570,,,0,,,
145,a,1,280,,,1,45,2009,"Feb,May,Aug,Nov"
146,d,3,8050,10,1961,1,48,2012,"Jan,Apr,Jul,Oct"
147,d,3,8540,,,0,,,
148,a,1,2090,12,2008,0,,,
149,d,1,2610,7,2006,1,14,2011,"Jan,Apr,Jul,Oct"
150,c,3,31830,3,2010,0,,,
151,d,3,4360,10,2005,0,,,
152,a,1,1780,,,0,,,
153,a,1,16240,10,2000,1,18,2011,"Feb,May,Aug,Nov"
154,d,3,16420,,,0,,,
155,d,1,3050,,,1,35,2010,"Jan,Apr,Jul,Oct"
156,a,1,2020,2,2011,1,14,2011,"Mar,Jun,Sept,Dec"
157,a,3,2950,10,2004,0,,,
158,d,3,11840,,,1,31,2009,"Feb,May,Aug,Nov"
159,d,1,8530,3,2013,0,,,
160,d,3,17110,11,2005,0,,,
161,a,3,2970,3,2005,0,,,
162,d,3,5340,3,2012,1,13,2010,"Jan,Apr,Jul,Oct"
163,a,1,1480,4,2009,0,,,
164,a,1,1160,9,2005,1,13,2010,"Jan,Apr,Jul,Oct"
165,a,1,3720,4,2005,1,13,2010,"Jan,Apr,Jul,Oct"
166,a,3,100,4,2014,1,31,2013,"Jan,Apr,Jul,Oct"
167,a,1,140,4,2008,0,,,
168,a,1,12540,,,0,,,
169,d,1,980,7,2014,1,18,2014,"Feb,May,Aug,Nov"
170,a,1,1070,5,2015,1,14,2011,"Jan,Apr,Jul,Oct"
171,a,1,2640,,,0,,,
172,a,1,110,,,1,40,2014,"Jan,Apr,Jul,Oct"
173,a,1,350,12,2012,0,,,
174,a,1,13090,,,1,22,2012,"Jan,Apr,Jul,Oct"
175,c,1,4130,,,0,,,
176,a,1,3770,,,0,,,
177,a,1,1250,2,2004,1,5,2013,"Feb,May,Aug,Nov"
178,d,1,1710,,,0,,,
179,a,3,480,,,0,,,
180,d,1,5800,9,2010,0,,,
181,a,1,12610,3,2013,1,14,2011,"Jan,Apr,Jul,Oct"
182,d,3,1390,,,1,9,2011,"Mar,Jun,Sept,Dec"
183,a,1,9670,,,0,,,
184,d,3,3560,,,0,,,
185,d,3,1860,5,2015,0,,,
186,a,1,290,10,2011,1,40,2014,"Jan,Apr,Jul,Oct"
187,a,3,19360,,,0,,,
188,d,1,850,,,1,18,2011,"Feb,May,Aug,Nov"
189,d,1,5760,7,2014,0,,,
190,a,1,1470,12,2006,1,40,2014,"Jan,Apr,Jul,Oct"
191,a,1,1100,8,2013,1,40,2014,"Jan,Apr,Jul,Oct"
192,d,3,2770,3,2008,1,40,2014,"Jan,Apr,Jul,Oct"
193,a,1,520,,,0,,,
194,d,3,16970,,,1,5,2013,"Feb,May,Aug,Nov"
195,a,3,220,,,0,,,
196,c,1,3850,11,2005,1,14,2011,"Jan,Apr,Jul,Oct"
197,c,1,4210,3,2015,0,,,
198,a,1,290,9,2002,1,13,2010,"Jan,Apr,Jul,Oct"
199,d,3,6360,12,2010,1,14,2012,"Mar,Jun,Sept,Dec"
200,a,1,1650,10,2000,0,,,
201,d,1,20260,,,1,18,2014,"Mar,Jun,Sept,Dec"
202,d,3,5140,5,2010,0,,,
203,c,3,490,11,2002,0,,,
204,a,1,5630,12,2002,1,40,2014,"Jan,Apr,Jul,Oct"
205,a,1,110,12,2007,0,,,
206,a,3,380,,,1,14,2012,"Jan,Apr,Jul,Oct"
207,a,1,6870,,,0,,,
208,c,1,300,4,2006,0,,,
209,a,3,11680,9,2011,1,31,2013,"Jan,Apr,Jul,Oct"
210,d,1,970,11,1999,1,5,2013,"Feb,May,Aug,Nov"
211,a,3,350,11,2006,0,,,
212,a,3,15050,9,2008,0,,,
213,d,3,4030,3,2014,1,1,2014,"Jan,Apr,Jul,Oct"
214,d,1,8650,7,2013,1,10,2014,"Jan,Apr,Jul,Oct"
215,d,1,150,,,1,45,2009,"Feb,May,Aug,Nov"
216,c,1,190,,,1,45,2009,"Feb,May,Aug,Nov"
217,c,1,3150,,,0,,,
218,a,3,640,,,1,9,2011,"Mar,Jun,Sept,Dec"
219,a,1,1640,2,2013,0,,,
220,a,1,1000,9,2008,0,,,
221,d,3,13530,9,2013,0,,,
222,a,1,2170,11,2008,0,,,
223,d,3,2920,10,1995,1,27,2011,"Jan,Apr,Jul,Oct"
224,d,3,7930,,,1,1,2013,"Jan,Apr,Jul,Oct"
225,d,1,10180,5,2015,0,,,
226,a,1,450,,,0,,,
227,a,1,2370,,,0,,,
228,d,3,10800,,,1,18,2011,"Feb,May,Aug,Nov"
229,d,3,17410,4,2007,1,14,2011,"Jan,Apr,Jul,Oct"
230,d,3,6680,9,2013,0,,,
231,d,3,3840,10,2008,1,39,2010,"Feb,May,Aug,Nov"
232,c,3,13570,5,2010,1,10,2013,"Mar,Jun,Sept,Dec"
233,a,1,1890,,,0,,,
234,d,1,4370,,,0,,,
235,a,1,5710,3,2012,1,37,2009,"Jan,Apr,Jul,Oct"
236,a,1,1000,11,2007,0,,,
237,a,1,1420,11,2007,0,,,
238,a,1,320,,,1,45,2009,"Feb,May,Aug,Nov"
239,d,3,610,,,0,,,
240,a,1,1110,5,2009,0,,,
241,d,3,780,,,0,,,
242,d,1,6880,9,2001,1,14,2011,"Jan,Apr,Jul,Oct"
243,a,1,310,,,1,5,2013,"Feb,May,Aug,Nov"
244,d,1,710,3,2012,1,1,2012,"Jan,Apr,Jul,Oct"
245,a,3,1310,,,0,,,
246,c,1,4660,4,2013,0,,,
247,d,3,70,11,2010,1,5,2013,"Feb,May,Aug,Nov"
248,a,3,340,9,2012,1,40,2012,"Jan,Apr,Jul,Oct"
249,d,3,18010,9,2014,0,,,
250,d,1,3520,,,1,18,2012,"Feb,May,Aug,Nov"
251,a,3,340,,,0,,,
252,d,3,22330,,,1,5,2010,"Feb,May,Aug,Nov"
253,a,3,250,,,1,5,2013,"Feb,May,Aug,Nov"
254,d,1,330,3,2008,1,1,2012,"Mar,Jun,Sept,Dec"
255,c,3,4630,3,2011,1,35,2011,"Feb,May,Aug,Nov"
256,a,3,80,9,2005,1,10,2014,"Mar,Jun,Sept,Dec"
257,a,1,420,12,2012,0,,,
258,a,1,27190,7,2010,1,37,2009,"Jan,Apr,Jul,Oct"
259,b,2,210,,,0,,,
260,a,1,540,10,2011,0,,,
261,d,3,15340,4,2015,1,39,2009,"Jan,Apr,Jul,Oct"
262,b,1,1180,5,2013,0,,,
263,a,3,1140,5,2013,1,40,2014,"Jan,Apr,Jul,Oct"
264,a,1,180,3,2014,0,,,
265,a,1,4580,,,1,14,2015,"Jan,Apr,Jul,Oct"
266,a,3,360,3,2014,1,9,2011,"Mar,Jun,Sept,Dec"
267,c,1,2460,1,2012,0,,,
268,a,1,4520,2,2014,0,,,
269,a,3,60,6,2015,0,,,
270,a,1,1450,7,2014,0,,,
271,a,1,420,,,1,14,2011,"Jan,Apr,Jul,Oct"
272,a,1,16180,7,2003,1,14,2011,"Jan,Apr,Jul,Oct"
273,a,3,8480,,,0,,,
274,b,2,3640,,,1,10,2013,"Jan,Apr,Jul,Oct"
275,d,1,300,5,2014,1,40,2014,"Jan,Apr,Jul,Oct"
276,a,1,2960,10,2014,1,36,2013,"Mar,Jun,Sept,Dec"
277,d,3,7840,,,1,31,2009,"Feb,May,Aug,Nov"
278,a,3,9260,2,2010,0,,,
279,d,3,2320,,,1,40,2012,"Jan,Apr,Jul,Oct"
280,d,3,18640,9,2013,1,10,2014,"Mar,Jun,Sept,Dec"
281,d,3,6970,9,2011,0,,,
282,a,1,1220,12,2010,0,,,
283,a,1,2260,,,1,40,2014,"Jan,Apr,Jul,Oct"
284,d,1,1290,,,1,40,2014,"Jan,Apr,Jul,Oct"
285,a,1,2410,,,0,,,
286,a,1,1460,4,2015,0,,,
287,c,1,2740,5,2009,1,40,2014,"Jan,Apr,Jul,Oct"
288,d,1,800,,,1,14,2011,"Mar,Jun,Sept,Dec"
289,d,1,6540,12,2007,0,,,
290,a,1,4150,5,2001,0,,,
291,d,1,80000,,,0,,,
292,a,1,1100,6,2009,0,,,
293,c,3,140,11,2007,0,,,
294,a,1,3150,5,2005,0,,,
295,a,1,210,11,2000,1,36,2013,"Mar,Jun,Sept,Dec"
296,a,1,9580,5,2007,1,45,2014,"Feb,May,Aug,Nov"
297,a,1,2300,9,2010,0,,,
298,d,1,19840,7,2009,0,,,
299,d,3,38630,9,2012,0,,,
300,a,3,120,4,2009,1,1,2012,"Jan,Apr,Jul,Oct"
301,a,3,4510,3,2015,0,,,
302,d,3,2190,12,2007,1,9,2011,"Mar,Jun,Sept,Dec"
303,a,1,15430,11,2012,1,18,2011,"Feb,May,Aug,Nov"
304,a,1,1950,7,2015,0,,,
305,c,3,2470,2,2005,1,31,2013,"Mar,Jun,Sept,Dec"
306,a,1,5100,4,2007,1,40,2014,"Jan,Apr,Jul,Oct"
307,a,1,18660,9,2002,0,,,
308,a,1,1070,12,2006,1,13,2010,"Jan,Apr,Jul,Oct"
309,d,1,8740,,,1,37,2009,"Feb,May,Aug,Nov"
310,a,3,2290,,,1,10,2014,"Mar,Jun,Sept,Dec"
311,a,3,680,7,2005,0,,,
312,d,1,11300,3,2012,0,,,
313,d,3,14160,,,0,,,
314,a,1,3560,10,2001,1,31,2013,"Feb,May,Aug,Nov"
315,a,3,38710,4,2013,0,,,
316,d,1,9000,8,2001,0,,,
317,d,1,3140,7,2013,1,14,2011,"Jan,Apr,Jul,Oct"
318,d,3,32330,3,2014,0,,,
319,a,3,570,9,2012,1,27,2012,"Mar,Jun,Sept,Dec"
320,a,3,210,9,2012,0,,,
321,c,3,8140,11,2013,1,10,2014,"Mar,Jun,Sept,Dec"
322,a,1,17500,4,2001,1,37,2009,"Jan,Apr,Jul,Oct"
323,d,3,8400,4,2012,1,5,2013,"Feb,May,Aug,Nov"
324,a,1,13140,,,1,14,2011,"Jan,Apr,Jul,Oct"
325,a,3,350,3,2011,1,22,2011,"Feb,May,Aug,Nov"
326,d,1,10070,5,2015,1,31,2013,"Feb,May,Aug,Nov"
327,c,3,1390,12,2004,0,,,
328,a,1,3130,7,2002,0,,,
329,a,1,1310,6,1990,1,22,2012,"Mar,Jun,Sept,Dec"
330,a,3,370,,,1,22,2012,"Mar,Jun,Sept,Dec"
331,a,3,670,,,1,14,2015,"Jan,Apr,Jul,Oct"
332,a,1,1840,3,2006,0,,,
333,a,3,3720,2,2010,0,,,
334,d,3,4040,8,2008,1,18,2013,"Mar,Jun,Sept,Dec"
335,b,1,90,,,1,31,2013,"Jan,Apr,Jul,Oct"
336,a,1,190,7,2014,0,,,
337,d,3,10600,7,2005,1,45,2014,"Feb,May,Aug,Nov"
338,a,3,1590,,,1,37,2009,"Jan,Apr,Jul,Oct"
339,a,3,2280,,,1,10,2013,"Mar,Jun,Sept,Dec"
340,a,3,8080,,,0,,,
341,a,1,190,9,2011,0,,,
342,d,3,15770,,,1,40,2014,"Jan,Apr,Jul,Oct"
343,d,1,18650,4,2004,1,14,2014,"Jan,Apr,Jul,Oct"
344,a,3,300,4,2011,1,14,2011,"Jan,Apr,Jul,Oct"
345,a,1,120,,,1,22,2012,"Jan,Apr,Jul,Oct"
346,a,3,8090,,,0,,,
347,d,3,9360,7,2013,1,22,2012,"Mar,Jun,Sept,Dec"
348,a,1,16490,,,1,22,2012,"Jan,Apr,Jul,Oct"
349,c,3,1490,4,2009,0,,,
350,d,1,8880,,,1,14,2011,"Jan,Apr,Jul,Oct"
351,a,1,5290,11,2012,1,5,2013,"Feb,May,Aug,Nov"
352,d,3,6360,,,1,40,2012,"Mar,Jun,Sept,Dec"
353,b,2,900,,,1,14,2013,"Feb,May,Aug,Nov"
354,d,3,1500,10,2005,0,,,
355,a,3,9720,8,2013,0,,,
356,d,3,8970,12,2007,1,22,2012,"Feb,May,Aug,Nov"
357,a,1,2060,10,2008,0,,,
358,a,1,2890,10,2003,0,,,
359,d,3,4370,,,0,,,
360,a,1,2040,6,2007,0,,,
361,c,3,4490,5,2014,1,5,2013,"Feb,May,Aug,Nov"
362,c,3,340,,,0,,,
363,a,1,250,9,2009,0,,,
364,a,3,13620,,,1,10,2014,"Mar,Jun,Sept,Dec"
365,c,1,2410,,,1,45,2009,"Feb,May,Aug,Nov"
366,d,3,6470,12,2004,0,,,
367,d,3,2640,9,2012,0,,,
368,d,3,1450,4,2005,1,45,2009,"Feb,May,Aug,Nov"
369,d,3,5870,4,2014,0,,,
370,d,1,8250,10,2000,1,31,2009,"Jan,Apr,Jul,Oct"
371,d,3,1970,7,2009,1,45,2014,"Feb,May,Aug,Nov"
372,d,3,4880,8,2010,1,18,2014,"Jan,Apr,Jul,Oct"
373,d,3,11120,,,1,22,2012,"Jan,Apr,Jul,Oct"
374,a,1,1150,9,2007,0,,,
375,a,3,15710,2,2013,1,37,2009,"Jan,Apr,Jul,Oct"
376,a,1,160,8,2012,0,,,
377,a,3,100,6,2010,1,18,2010,"Feb,May,Aug,Nov"
378,a,3,2140,8,2012,0,,,
379,d,1,6630,,,0,,,
380,a,1,2240,5,2013,1,10,2014,"Mar,Jun,Sept,Dec"
381,a,1,1800,11,2006,1,5,2013,"Feb,May,Aug,Nov"
382,c,3,26130,11,2002,0,,,
383,a,3,350,,,0,,,
384,a,3,130,,,1,14,2011,"Jan,Apr,Jul,Oct"
385,d,1,4580,9,2007,0,,,
386,d,3,1460,4,2014,1,31,2013,"Jan,Apr,Jul,Oct"
387,c,1,210,,,1,36,2013,"Mar,Jun,Sept,Dec"
388,a,1,2260,,,0,,,
389,a,3,6690,8,2011,0,,,
390,a,3,1600,4,2009,0,,,
391,a,1,460,11,2014,1,31,2013,"Feb,May,Aug,Nov"
392,a,1,2120,,,0,,,
393,d,3,4820,3,2008,0,,,
394,d,1,10850,,,0,,,
395,a,1,3620,2,2013,0,,,
396,a,3,23130,,,0,,,
397,a,3,130,,,1,27,2013,"Feb,May,Aug,Nov"
398,c,3,1540,,,1,1,2012,"Jan,Apr,Jul,Oct"
399,a,1,5360,9,2012,1,40,2011,"Jan,Apr,Jul,Oct"
400,a,1,70,11,2004,1,14,2011,"Jan,Apr,Jul,Oct"
401,a,3,9200,10,2009,1,14,2012,"Jan,Apr,Jul,Oct"
402,c,3,5830,9,2011,1,13,2010,"Jan,Apr,Jul,Oct"
403,a,1,4970,7,2015,0,,,
404,a,3,1420,,,1,10,2013,"Mar,Jun,Sept,Dec"
405,a,1,1080,4,2008,1,14,2011,"Jan,Apr,Jul,Oct"
406,d,3,8240,3,2001,1,10,2013,"Feb,May,Aug,Nov"
407,a,1,5890,10,2003,1,14,2011,"Feb,May,Aug,Nov"
408,c,1,1560,,,1,45,2009,"Feb,May,Aug,Nov"
409,d,3,840,,,1,1,2013,"Jan,Apr,Jul,Oct"
410,c,1,40,11,2011,1,22,2012,"Mar,Jun,Sept,Dec"
411,d,3,8460,,,0,,,
412,d,3,4460,,,1,39,2010,"Jan,Apr,Jul,Oct"
413,a,3,760,9,2014,0,,,
414,d,3,6210,,,1,1,2013,"Jan,Apr,Jul,Oct"
415,d,3,6910,4,2005,0,,,
416,a,3,4650,6,2014,0,,,
417,a,3,840,,,1,10,2014,"Jan,Apr,Jul,Oct"
418,a,1,1060,5,2009,1,27,2011,"Feb,May,Aug,Nov"
419,c,1,1620,9,2009,0,,,
420,d,3,250,,,1,27,2012,"Jan,Apr,Jul,Oct"
421,c,3,3530,6,2012,1,35,2012,"Mar,Jun,Sept,Dec"
422,a,3,2880,,,0,,,
423,b,1,1270,5,2014,0,,,
424,d,3,1250,,,1,40,2011,"Jan,Apr,Jul,Oct"
425,d,3,1460,,,0,,,
426,a,1,250,,,0,,,
427,a,3,70,7,2005,1,13,2010,"Jan,Apr,Jul,Oct"
428,d,1,2960,12,2014,1,23,2015,"Mar,Jun,Sept,Dec"
429,d,3,16350,7,2005,1,31,2013,"Jan,Apr,Jul,Oct"
430,d,3,12870,10,2008,0,,,
431,d,3,4520,,,0,,,
432,a,1,810,5,2013,0,,,
433,a,3,30030,11,2010,0,,,
434,a,1,13020,8,2003,1,40,2014,"Jan,Apr,Jul,Oct"
435,a,1,910,,,0,,,
436,d,1,2300,,,0,,,
437,c,3,430,,,1,50,2010,"Jan,Apr,Jul,Oct"
438,d,3,1110,,,1,40,2012,"Jan,Apr,Jul,Oct"
439,a,1,1350,9,2009,0,,,
440,d,1,3900,4,2005,1,45,2009,"Feb,May,Aug,Nov"
441,d,1,2530,,,0,,,
442,c,1,500,,,1,45,2009,"Feb,May,Aug,Nov"
443,d,1,11400,12,2005,0,,,
444,c,1,1700,11,2009,0,,,
445,a,1,240,,,0,,,
446,a,1,340,10,2000,1,31,2013,"Feb,May,Aug,Nov"
447,a,3,1510,9,2013,0,,,
448,a,3,3970,9,2009,0,,,
449,a,3,120,12,2014,1,37,2009,"Jan,Apr,Jul,Oct"
450,c,1,5780,11,1994,1,10,2014,"Mar,Jun,Sept,Dec"
451,a,1,2460,4,2009,1,13,2010,"Jan,Apr,Jul,Oct"
452,a,3,1850,8,2013,1,5,2011,"Feb,May,Aug,Nov"
453,a,3,75860,,,0,,,
454,a,1,26450,,,0,,,
455,d,3,7660,9,2010,0,,,
456,a,3,140,,,0,,,
457,d,3,13140,,,1,31,2013,"Jan,Apr,Jul,Oct"
458,c,1,3390,,,0,,,
459,a,1,250,9,2008,1,5,2013,"Feb,May,Aug,Nov"
460,a,1,34050,4,2008,0,,,
461,d,3,1790,7,2013,1,40,2013,"Jan,Apr,Jul,Oct"
462,a,1,44320,8,2008,0,,,
463,a,1,4160,,,0,,,
464,c,1,520,3,2009,0,,,
465,d,3,10890,4,2005,0,,,
466,a,3,3110,3,2003,0,,,
467,a,3,20390,4,2008,0,,,
468,c,3,5260,9,2012,0,,,
469,c,3,710,9,2005,0,,,
470,a,3,50,,,0,,,
471,d,1,5300,,,1,45,2009,"Feb,May,Aug,Nov"
472,c,3,5030,8,2011,0,,,
473,a,1,50,,,0,,,
474,c,1,14810,,,1,14,2011,"Mar,Jun,Sept,Dec"
475,a,1,140,9,2005,0,,,
476,d,1,8300,9,2006,0,,,
477,d,1,770,7,2010,1,35,2010,"Jan,Apr,Jul,Oct"
478,d,3,1940,3,2012,0,,,
479,a,1,320,12,2005,1,9,2011,"Feb,May,Aug,Nov"
480,a,1,300,11,2012,0,,,
481,c,3,7470,,,1,44,2012,"Feb,May,Aug,Nov"
482,c,1,2550,10,2005,0,,,
483,a,3,2310,9,2011,1,13,2010,"Jan,Apr,Jul,Oct"
484,a,3,14300,3,2011,0,,,
485,d,3,3270,,,1,22,2012,"Jan,Apr,Jul,Oct"
486,a,1,2320,,,1,31,2013,"Jan,Apr,Jul,Oct"
487,d,3,2180,9,2012,1,40,2012,"Jan,Apr,Jul,Oct"
488,a,3,2890,4,2014,0,,,
489,a,1,14960,11,2013,1,37,2009,"Jan,Apr,Jul,Oct"
490,a,1,660,4,2013,1,40,2014,"Jan,Apr,Jul,Oct"
491,d,3,4680,,,1,22,2012,"Mar,Jun,Sept,Dec"
492,a,1,1740,3,2008,1,40,2012,"Jan,Apr,Jul,Oct"
493,d,3,1150,,,1,14,2011,"Jan,Apr,Jul,Oct"
494,b,1,1260,6,2011,0,,,
495,d,1,5470,,,1,37,2009,"Jan,Apr,Jul,Oct"
496,d,3,2780,6,2015,0,,,
497,a,3,1610,,,0,,,
498,a,1,990,,,1,40,2014,"Jan,Apr,Jul,Oct"
499,c,3,450,,,1,5,2013,"Feb,May,Aug,Nov"
500,d,3,10690,9,2007,1,5,2013,"Jan,Apr,Jul,Oct"
501,a,3,1620,9,2006,0,,,
502,a,1,220,2,2002,1,37,2009,"Jan,Apr,Jul,Oct"
503,d,3,13080,9,2006,1,14,2011,"Jan,Apr,Jul,Oct"
504,c,3,820,,,0,,,
505,a,1,350,,,1,5,2013,"Feb,May,Aug,Nov"
506,a,1,1850,12,2014,1,18,2011,"Feb,May,Aug,Nov"
507,a,3,9070,4,2011,1,37,2009,"Jan,Apr,Jul,Oct"
508,a,3,1280,,,1,40,2011,"Jan,Apr,Jul,Oct"
509,a,1,4740,7,2008,1,37,2009,"Jan,Apr,Jul,Oct"
510,a,3,8260,,,0,,,
511,a,1,2060,9,2009,0,,,
512,b,2,590,,,1,5,2013,"Mar,Jun,Sept,Dec"
513,a,1,400,8,2013,0,,,
514,c,3,1200,7,2012,1,27,2012,"Jan,Apr,Jul,Oct"
515,d,3,11260,,,1,9,2011,"Feb,May,Aug,Nov"
516,a,3,20,,,1,35,2010,"Mar,Jun,Sept,Dec"
517,a,3,22490,,,0,,,
518,d,3,3330,3,2015,1,13,2010,"Jan,Apr,Jul,Oct"
519,c,3,2510,8,2009,1,1,2012,"Jan,Apr,Jul,Oct"
520,a,3,6900,,,1,40,2012,"Mar,Jun,Sept,Dec"
521,d,1,18610,11,2002,1,48,2011,"Mar,Jun,Sept,Dec"
522,d,3,7160,11,2012,1,9,2011,"Jan,Apr,Jul,Oct"
523,c,3,50,11,2013,0,,,
524,a,3,40860,9,2013,0,,,
525,d,3,1870,9,2013,0,,,
526,a,1,120,,,1,48,2011,"Mar,Jun,Sept,Dec"
527,d,3,5830,4,2008,0,,,
528,a,3,20620,,,1,37,2009,"Jan,Apr,Jul,Oct"
529,d,3,12920,9,2012,0,,,
530,a,3,18160,,,0,,,
531,a,3,4030,,,0,,,
532,a,3,1070,8,2010,0,,,
533,a,3,5950,,,0,,,
534,d,1,1200,9,2009,1,45,2009,"Jan,Apr,Jul,Oct"
535,a,1,3570,4,2007,0,,,
536,a,3,4700,9,2002,1,31,2013,"Feb,May,Aug,Nov"
537,a,1,600,5,2002,1,1,2012,"Jan,Apr,Jul,Oct"
538,a,1,990,2,2010,0,,,
539,a,1,770,5,2013,1,40,2014,"Jan,Apr,Jul,Oct"
540,d,3,810,,,1,48,2012,"Jan,Apr,Jul,Oct"
541,a,3,650,7,1990,0,,,
542,a,1,7280,9,2012,1,1,2013,"Jan,Apr,Jul,Oct"
543,c,1,1080,12,2012,0,,,
544,a,1,250,12,2001,1,13,2010,"Jan,Apr,Jul,Oct"
545,a,3,5020,5,2006,1,18,2014,"Feb,May,Aug,Nov"
546,a,1,580,1,2005,0,,,
547,d,3,8990,11,2009,1,35,2010,"Mar,Jun,Sept,Dec"
548,d,3,3760,2,2009,0,,,
549,a,3,2330,,,0,,,
550,d,3,50,6,2015,0,,,
551,a,3,2190,9,2013,0,,,
552,a,1,4260,7,2008,1,37,2009,"Jan,Apr,Jul,Oct"
553,c,1,3040,9,2002,1,13,2010,"Jan,Apr,Jul,Oct"
554,c,3,1200,,,0,,,
555,d,1,1560,1,2014,1,10,2013,"Mar,Jun,Sept,Dec"
556,d,3,1140,11,2014,0,,,
557,a,1,250,,,0,,,
558,a,1,3000,2,2010,0,,,
559,d,1,3910,11,2006,1,5,2013,"Feb,May,Aug,Nov"
560,c,3,1910,7,2013,0,,,
561,d,1,14300,,,0,,,
562,b,3,1210,,,0,,,
563,a,1,700,3,2015,1,10,2014,"Jan,Apr,Jul,Oct"
564,d,3,6540,,,1,14,2013,"Jan,Apr,Jul,Oct"
565,a,3,160,7,2007,0,,,
566,a,1,3620,,,1,40,2013,"Jan,Apr,Jul,Oct"
567,c,1,1010,9,2012,1,18,2011,"Feb,May,Aug,Nov"
568,d,3,4270,,,1,1,2013,"Jan,Apr,Jul,Oct"
569,a,1,1340,9,2006,0,,,
570,a,1,180,11,2006,0,,,
571,d,1,2110,11,1995,1,40,2014,"Jan,Apr,Jul,Oct"
572,d,3,9230,4,2004,1,37,2009,"Jan,Apr,Jul,Oct"
573,a,1,1190,11,2012,1,36,2013,"Jan,Apr,Jul,Oct"
574,d,1,4400,,,0,,,
575,a,1,960,5,2008,1,13,2010,"Jan,Apr,Jul,Oct"
576,c,1,50,11,2006,0,,,
577,a,3,2270,,,1,35,2012,"Mar,Jun,Sept,Dec"
578,d,1,12700,4,2013,0,,,
579,c,1,20970,11,2012,0,,,
580,a,3,170,2,2009,0,,,
581,a,1,7250,12,2013,0,,,
582,a,1,120,,,0,,,
583,a,1,2640,11,2002,0,,,
584,d,1,1360,,,1,35,2010,"Mar,Jun,Sept,Dec"
585,d,3,440,4,2014,0,,,
586,a,3,250,10,2008,0,,,
587,d,3,330,9,2006,1,14,2011,"Jan,Apr,Jul,Oct"
588,d,3,15720,3,2010,0,,,
589,a,3,360,,,1,18,2013,"Feb,May,Aug,Nov"
590,d,3,4520,9,2010,1,31,2013,"Jan,Apr,Jul,Oct"
591,a,3,3340,,,1,22,2012,"Mar,Jun,Sept,Dec"
592,a,1,2540,6,2005,0,,,
593,a,3,33060,3,2010,0,,,
594,a,1,1790,10,2011,0,,,
595,c,3,1130,6,2015,0,,,
596,c,1,290,9,2006,0,,,
597,a,1,150,9,2008,1,1,2012,"Mar,Jun,Sept,Dec"
598,c,1,550,12,2013,1,40,2014,"Jan,Apr,Jul,Oct"
599,d,3,580,11,2014,0,,,
600,d,3,17340,6,2010,1,9,2011,"Feb,May,Aug,Nov"
601,d,1,8220,4,2014,1,14,2011,"Jan,Apr,Jul,Oct"
602,a,1,2710,7,2001,1,22,2012,"Mar,Jun,Sept,Dec"
603,a,1,340,4,2007,1,13,2010,"Jan,Apr,Jul,Oct"
604,d,1,10950,3,2014,0,,,
605,d,1,10310,4,2003,1,37,2009,"Jan,Apr,Jul,Oct"
606,a,1,2260,11,2007,0,,,
607,a,1,350,8,1999,1,14,2011,"Jan,Apr,Jul,Oct"
608,a,3,18370,2,2013,1,14,2011,"Jan,Apr,Jul,Oct"
609,a,1,2070,9,2007,0,,,
610,a,1,660,1,2007,0,,,
611,a,1,8080,12,2002,1,40,2014,"Jan,Apr,Jul,Oct"
612,d,3,2490,11,2012,1,31,2009,"Jan,Apr,Jul,Oct"
613,c,1,250,6,2007,1,14,2011,"Jan,Apr,Jul,Oct"
614,a,1,1160,12,2012,0,,,
615,d,1,730,8,2007,0,,,
616,a,3,3040,8,2011,1,35,2010,"Mar,Jun,Sept,Dec"
617,a,3,8940,,,1,9,2011,"Jan,Apr,Jul,Oct"
618,d,3,9910,,,0,,,
619,a,1,1600,6,2006,1,45,2009,"Feb,May,Aug,Nov"
620,d,3,5440,,,1,40,2014,"Jan,Apr,Jul,Oct"
621,a,1,30,7,2002,0,,,
622,a,3,80000,,,0,,,
623,a,1,4080,3,2011,1,13,2010,"Jan,Apr,Jul,Oct"
624,a,3,6920,9,2011,0,,,
625,a,1,1170,4,2011,1,22,2012,"Feb,May,Aug,Nov"
626,c,3,10740,11,2013,0,,,
627,c,3,3970,3,2010,0,,,
628,a,3,2180,,,0,,,
629,d,1,510,7,2014,1,23,2015,"Mar,Jun,Sept,Dec"
630,a,1,1690,4,2015,0,,,
631,d,3,2870,,,1,35,2012,"Mar,Jun,Sept,Dec"
632,a,1,3350,2,2010,0,,,
633,d,1,11640,4,2005,1,22,2011,"Jan,Apr,Jul,Oct"
634,d,1,18610,,,0,,,
635,a,1,27530,4,2014,0,,,
636,c,1,720,10,2004,1,13,2010,"Jan,Apr,Jul,Oct"
637,d,3,9790,,,1,31,2009,"Feb,May,Aug,Nov"
638,d,1,10170,11,2001,0,,,
639,a,1,7780,11,2006,0,,,
640,d,3,8040,,,0,,,
641,a,3,610,12,2003,1,36,2013,"Mar,Jun,Sept,Dec"
642,c,3,530,4,2005,1,35,2010,"Mar,Jun,Sept,Dec"
643,a,1,230,6,2010,1,18,2010,"Feb,May,Aug,Nov"
644,c,1,4030,12,2004,1,14,2011,"Jan,Apr,Jul,Oct"
645,a,1,90,,,1,45,2009,"Feb,May,Aug,Nov"
646,a,1,620,9,2014,0,,,
647,a,3,7420,4,2013,0,,,
648,d,1,2130,12,2008,0,,,
649,a,1,14570,11,2002,0,,,
650,a,1,1420,10,2012,1,40,2014,"Jan,Apr,Jul,Oct"
651,a,1,200,,,0,,,
652,a,1,20390,,,0,,,
653,d,3,7520,7,2014,1,45,2009,"Feb,May,Aug,Nov"
654,c,1,6930,9,2006,0,,,
655,d,3,960,11,2012,1,5,2013,"Feb,May,Aug,Nov"
656,d,1,410,4,2009,1,13,2010,"Jan,Apr,Jul,Oct"
657,c,3,80,1,2006,1,10,2014,"Jan,Apr,Jul,Oct"
658,d,3,520,,,1,37,2009,"Jan,Apr,Jul,Oct"
659,d,1,1590,3,2012,0,,,
660,a,1,1200,11,2006,1,40,2014,"Jan,Apr,Jul,Oct"
661,d,3,2140,7,2013,0,,,
662,d,1,1070,,,0,,,
663,a,3,7860,5,2005,0,,,
664,d,3,1680,10,2005,0,,,
665,a,1,90,12,2012,1,14,2011,"Jan,Apr,Jul,Oct"
666,c,3,2700,,,1,9,2011,"Mar,Jun,Sept,Dec"
667,d,3,2870,9,2012,0,,,
668,c,1,1270,9,2010,0,,,
669,d,1,17080,7,2012,1,31,2013,"Jan,Apr,Jul,Oct"
670,a,1,2060,,,1,45,2009,"Feb,May,Aug,Nov"
671,a,3,2070,2,2008,1,39,2010,"Jan,Apr,Jul,Oct"
672,c,1,240,9,2002,0,,,
673,d,3,15170,,,1,5,2013,"Feb,May,Aug,Nov"
674,a,1,2640,12,2005,1,31,2013,"Feb,May,Aug,Nov"
675,a,1,2100,8,2013,1,14,2011,"Jan,Apr,Jul,Oct"
676,b,2,1410,9,2008,0,,,
677,d,1,1740,6,2014,1,45,2009,"Feb,May,Aug,Nov"
678,c,1,3250,,,1,40,2011,"Jan,Apr,Jul,Oct"
679,a,1,4140,9,2012,0,,,
680,c,1,170,,,1,35,2012,"Mar,Jun,Sept,Dec"
681,a,3,620,,,1,1,2014,"Mar,Jun,Sept,Dec"
682,b,1,150,9,2006,0,,,
683,a,1,2850,7,2014,0,,,
684,d,3,680,,,1,22,2012,"Jan,Apr,Jul,Oct"
685,a,1,650,11,2013,1,37,2009,"Jan,Apr,Jul,Oct"
686,a,1,20050,4,2002,0,,,
687,d,3,2770,,,0,,,
688,a,1,18760,8,2015,1,14,2011,"Jan,Apr,Jul,Oct"
689,d,1,15040,10,2004,0,,,
690,a,1,100,,,0,,,
691,d,3,3030,,,1,37,2009,"Jan,Apr,Jul,Oct"
692,a,1,40,8,2001,0,,,
693,d,1,450,,,1,40,2011,"Jan,Apr,Jul,Oct"
694,a,3,460,11,2012,1,40,2014,"Jan,Apr,Jul,Oct"
695,a,1,550,7,2011,1,1,2012,"Jan,Apr,Jul,Oct"
696,a,3,430,,,0,,,
697,d,1,3780,,,1,40,2011,"Jan,Apr,Jul,Oct"
698,a,1,1790,5,2011,0,,,
699,a,1,180,,,1,5,2013,"Jan,Apr,Jul,Oct"
700,a,3,830,,,1,27,2013,"Jan,Apr,Jul,Oct"
701,d,1,1450,3,2012,1,14,2011,"Jan,Apr,Jul,Oct"
702,a,1,8550,9,2001,1,45,2009,"Feb,May,Aug,Nov"
703,a,1,80,6,2005,0,,,
704,d,3,1910,4,2009,0,,,
705,a,1,4140,9,2012,1,18,2011,"Feb,May,Aug,Nov"
706,d,1,7830,9,2014,1,10,2014,"Mar,Jun,Sept,Dec"
707,a,3,2900,7,1990,0,,,
708,c,3,11470,10,2009,1,18,2014,"Jan,Apr,Jul,Oct"
709,a,1,500,12,2010,0,,,
710,d,1,1500,9,2008,1,14,2011,"Jan,Apr,Jul,Oct"
711,d,1,17110,3,2007,1,5,2010,"Jan,Apr,Jul,Oct"
712,a,1,4870,9,2007,1,45,2009,"Jan,Apr,Jul,Oct"
713,a,3,220,,,1,10,2014,"Jan,Apr,Jul,Oct"
714,d,3,12070,10,2005,1,10,2013,"Jan,Apr,Jul,Oct"
715,a,1,14810,6,2014,0,,,
716,d,1,3200,1,2008,1,22,2011,"Jan,Apr,Jul,Oct"
717,d,3,310,,,1,40,2011,"Jan,Apr,Jul,Oct"
718,a,1,1100,6,2015,0,,,
719,c,3,8190,,,1,45,2009,"Feb,May,Aug,Nov"
720,a,3,15320,3,2011,1,14,2013,"Feb,May,Aug,Nov"
721,a,3,3590,9,2012,1,22,2012,"Mar,Jun,Sept,Dec"
722,a,1,50,,,0,,,
723,d,3,5650,9,2008,1,5,2013,"Feb,May,Aug,Nov"
724,d,3,5900,,,0,,,
725,d,3,17540,6,2012,0,,,
726,a,3,40540,2,2002,0,,,
727,a,1,2050,3,2007,0,,,
728,d,1,13990,,,1,14,2011,"Jan,Apr,Jul,Oct"
729,c,3,8980,6,2011,0,,,
730,c,1,1190,9,2013,0,,,
731,a,1,15270,,,1,10,2014,"Jan,Apr,Jul,Oct"
732,a,3,35280,,,0,,,
733,b,2,860,10,1999,0,,,
734,a,1,220,,,1,36,2013,"Mar,Jun,Sept,Dec"
735,d,3,1920,4,2005,0,,,
736,c,3,1650,,,1,14,2011,"Jan,Apr,Jul,Oct"
737,a,1,100,5,2007,1,31,2013,"Jan,Apr,Jul,Oct"
738,d,3,5980,10,2005,0,,,
739,d,3,2770,6,2008,1,22,2011,"Jan,Apr,Jul,Oct"
740,d,1,6400,3,2014,0,,,
741,d,3,11900,,,0,,,
742,d,3,4380,,,0,,,
743,a,1,6710,11,2003,1,14,2012,"Jan,Apr,Jul,Oct"
744,a,1,1370,12,2011,1,40,2014,"Jan,Apr,Jul,Oct"
745,a,1,17650,11,2013,1,37,2009,"Jan,Apr,Jul,Oct"
746,d,3,4330,2,2011,1,35,2011,"Mar,Jun,Sept,Dec"
747,c,3,45740,8,2008,0,,,
748,d,1,2380,3,2010,1,14,2011,"Jan,Apr,Jul,Oct"
749,a,1,3410,8,2011,1,14,2015,"Jan,Apr,Jul,Oct"
750,d,1,8670,2,2002,1,14,2011,"Jan,Apr,Jul,Oct"
751,a,1,650,10,2006,0,,,
752,a,1,970,3,2013,1,31,2013,"Feb,May,Aug,Nov"
753,d,3,540,11,2012,1,35,2010,"Mar,Jun,Sept,Dec"
754,c,3,380,5,2008,1,10,2014,"Mar,Jun,Sept,Dec"
755,d,3,13130,12,2003,0,,,
756,a,3,50,,,1,40,2011,"Jan,Apr,Jul,Oct"
757,a,3,3450,,,0,,,
758,a,3,19780,6,2008,0,,,
759,a,1,110,11,2012,1,31,2013,"Feb,May,Aug,Nov"
760,a,1,560,1,2011,0,,,
761,a,1,2390,9,2012,0,,,
762,d,3,1280,,,1,10,2013,"Mar,Jun,Sept,Dec"
763,d,3,32240,3,2010,0,,,
764,a,3,26490,,,1,10,2014,"Mar,Jun,Sept,Dec"
765,a,3,25430,5,1999,1,37,2009,"Jan,Apr,Jul,Oct"
766,d,3,9820,,,0,,,
767,a,3,13080,,,0,,,
768,a,3,2630,9,2012,0,,,
769,b,2,840,,,1,48,2012,"Jan,Apr,Jul,Oct"
770,a,3,100,4,2015,0,,,
771,a,1,20640,9,2007,0,,,
772,d,3,1850,,,0,,,
773,a,1,200,,,0,,,
774,a,3,640,9,2013,0,,,
775,d,3,6970,12,2005,1,22,2011,"Jan,Apr,Jul,Oct"
776,c,1,700,4,2009,1,14,2011,"Jan,Apr,Jul,Oct"
777,d,3,8250,10,2004,1,10,2013,"Mar,Jun,Sept,Dec"
778,a,1,340,6,2003,1,40,2014,"Jan,Apr,Jul,Oct"
779,a,1,16990,4,2004,0,,,
780,a,1,18160,,,0,,,
781,a,1,630,4,2007,0,,,
782,c,3,5390,8,2003,1,1,2012,"Jan,Apr,Jul,Oct"
783,d,3,15490,,,0,,,
784,a,1,560,10,2014,1,10,2014,"Jan,Apr,Jul,Oct"
785,d,3,970,7,2005,1,31,2013,"Feb,May,Aug,Nov"
786,a,1,290,11,2006,1,5,2013,"Feb,May,Aug,Nov"
787,c,3,3210,6,2009,0,,,
788,a,3,1530,3,2013,0,,,
789,a,3,9770,7,2003,0,,,
790,d,3,9070,12,2003,0,,,
791,a,1,5950,4,2007,0,,,
792,d,1,17280,10,2009,1,18,2011,"Feb,May,Aug,Nov"
793,d,1,2710,7,2006,0,,,
794,c,3,5090,9,2006,0,,,
795,d,1,510,,,1,35,2010,"Mar,Jun,Sept,Dec"
796,a,3,7180,11,2012,0,,,
797,a,1,2090,10,2012,1,40,2014,"Jan,Apr,Jul,Oct"
798,a,1,9560,4,2001,0,,,
799,a,3,2700,,,0,,,
800,d,1,2020,7,2014,0,,,
801,d,1,48330,4,2013,0,,,
802,a,3,910,,,1,22,2011,"Feb,May,Aug,Nov"
803,d,1,1760,,,1,10,2014,"Mar,Jun,Sept,Dec"
804,c,3,2100,,,1,1,2013,"Jan,Apr,Jul,Oct"
805,d,1,24770,10,2011,1,10,2014,"Mar,Jun,Sept,Dec"
806,d,1,260,,,1,44,2010,"Feb,May,Aug,Nov"
807,a,1,3870,4,2008,0,,,
808,a,1,18620,,,1,31,2009,"Feb,May,Aug,Nov"
809,a,1,12770,10,2000,0,,,
810,d,3,9640,11,2013,0,,,
811,a,1,410,9,2012,0,,,
812,d,1,2590,9,2012,0,,,
813,a,1,1560,9,2003,0,,,
814,d,3,24530,7,2013,0,,,
815,a,1,590,1,1900,1,40,2014,"Jan,Apr,Jul,Oct"
816,c,3,460,,,0,,,
817,a,1,140,3,2006,0,,,
818,d,1,490,,,1,35,2010,"Mar,Jun,Sept,Dec"
819,a,3,720,10,2014,0,,,
820,a,3,1650,,,1,40,2014,"Jan,Apr,Jul,Oct"
821,a,1,1700,9,2009,0,,,
822,a,3,410,11,2010,1,48,2010,"Mar,Jun,Sept,Dec"
823,a,3,16210,11,2010,0,,,
824,a,1,17570,,,0,,,
825,a,1,380,5,2011,1,40,2014,"Jan,Apr,Jul,Oct"
826,a,3,7980,6,2005,0,,,
827,a,3,250,1,2005,0,,,
828,d,3,3290,12,2014,0,,,
829,c,1,110,,,0,,,
830,a,3,6320,,,1,5,2011,"Jan,Apr,Jul,Oct"
831,a,1,800,6,2007,0,,,
832,d,1,5070,,,1,45,2009,"Feb,May,Aug,Nov"
833,d,3,3290,12,1999,1,35,2010,"Mar,Jun,Sept,Dec"
834,a,1,3470,3,2012,0,,,
835,a,1,2890,12,2007,1,10,2014,"Mar,Jun,Sept,Dec"
836,a,1,2720,9,2012,0,,,
837,a,3,14600,4,2015,0,,,
838,d,3,6890,,,1,48,2011,"Mar,Jun,Sept,Dec"
839,c,1,240,1,2015,0,,,
840,a,1,1070,9,2009,0,,,
841,a,1,27650,8,2004,0,,,
842,d,3,1200,11,2007,0,,,
843,c,1,60,4,2006,0,,,
844,a,1,2030,9,2012,1,18,2011,"Feb,May,Aug,Nov"
845,d,1,7860,11,2005,1,14,2011,"Jan,Apr,Jul,Oct"
846,a,3,8860,4,2004,1,37,2009,"Jan,Apr,Jul,Oct"
847,c,3,190,,,1,31,2013,"Feb,May,Aug,Nov"
848,a,3,370,7,2007,1,14,2011,"Jan,Apr,Jul,Oct"
849,c,3,5000,,,0,,,
850,d,1,1120,5,2007,1,31,2013,"Jan,Apr,Jul,Oct"
851,d,3,2330,,,1,49,2014,"Mar,Jun,Sept,Dec"
852,c,1,940,4,2004,1,14,2011,"Jan,Apr,Jul,Oct"
853,a,1,14040,,,0,,,
854,c,1,4770,,,1,13,2010,"Jan,Apr,Jul,Oct"
855,a,1,3440,,,1,45,2009,"Feb,May,Aug,Nov"
856,a,1,3020,2,2010,0,,,
857,c,1,6270,8,2005,1,23,2014,"Mar,Jun,Sept,Dec"
858,a,1,3370,12,2008,1,40,2014,"Jan,Apr,Jul,Oct"
859,c,1,21770,7,2015,0,,,
860,c,3,5980,2,2010,0,,,
861,c,3,740,,,1,14,2013,"Mar,Jun,Sept,Dec"
862,a,3,2840,3,2010,1,14,2011,"Jan,Apr,Jul,Oct"
863,a,3,21370,11,2010,0,,,
864,a,1,1020,10,2012,1,45,2009,"Feb,May,Aug,Nov"
865,d,3,2640,,,0,,,
866,d,1,9680,,,1,5,2013,"Feb,May,Aug,Nov"
867,d,3,21810,9,2012,0,,,
868,d,3,1360,8,2005,1,10,2014,"Jan,Apr,Jul,Oct"
869,c,1,230,10,2001,1,14,2011,"Jan,Apr,Jul,Oct"
870,a,1,780,4,2009,0,,,
871,d,3,10620,,,0,,,
872,a,3,3860,9,2014,1,23,2015,"Mar,Jun,Sept,Dec"
873,a,1,2040,11,2008,0,,,
874,a,1,3210,,,0,,,
875,d,1,5070,11,2007,1,18,2015,"Feb,May,Aug,Nov"
876,a,1,21790,4,2005,1,18,2015,"Feb,May,Aug,Nov"
877,a,3,29190,,,0,,,
878,d,3,1100,12,2014,0,,,
879,d,1,80000,,,1,5,2013,"Feb,May,Aug,Nov"
880,a,3,4570,,,0,,,
881,a,1,180,3,2008,1,31,2013,"Feb,May,Aug,Nov"
882,a,1,30,4,2013,0,,,
883,a,1,3200,6,2005,0,,,
884,d,3,7550,,,0,,,
885,a,1,480,12,2005,0,,,
886,a,3,12430,10,2004,0,,,
887,d,1,19700,,,1,37,2009,"Jan,Apr,Jul,Oct"
888,d,1,4450,6,2012,1,35,2012,"Mar,Jun,Sept,Dec"
889,d,1,18670,12,2005,0,,,
890,a,1,4450,,,1,14,2011,"Jan,Apr,Jul,Oct"
891,a,3,350,,,1,31,2013,"Feb,May,Aug,Nov"
892,a,1,19370,4,2002,0,,,
893,a,1,130,,,1,1,2013,"Jan,Apr,Jul,Oct"
894,a,1,190,11,2012,0,,,
895,a,3,4150,,,0,,,
896,a,3,170,9,2012,0,,,
897,c,3,3290,1,2007,1,5,2013,"Feb,May,Aug,Nov"
898,a,1,18540,,,0,,,
899,d,1,2590,,,1,13,2010,"Jan,Apr,Jul,Oct"
900,a,1,3920,4,2005,1,40,2014,"Jan,Apr,Jul,Oct"
901,a,3,3170,4,2014,0,,,
902,a,1,310,5,2015,1,40,2014,"Jan,Apr,Jul,Oct"
903,d,3,7290,9,2014,0,,,
904,d,3,570,7,2013,1,14,2011,"Jan,Apr,Jul,Oct"
905,a,1,90,6,2014,0,,,
906,a,1,90,7,2010,0,,,
907,a,3,250,,,0,,,
908,a,1,1980,7,2010,1,37,2009,"Jan,Apr,Jul,Oct"
909,a,3,1680,,,1,45,2009,"Feb,May,Aug,Nov"
910,d,3,12480,,,1,1,2013,"Jan,Apr,Jul,Oct"
911,a,3,16490,,,0,,,
912,c,3,3100,5,2010,0,,,
913,a,1,280,,,0,,,
914,c,3,2640,4,2011,1,22,2012,"Mar,Jun,Sept,Dec"
915,d,3,650,3,2013,1,40,2014,"Jan,Apr,Jul,Oct"
916,a,1,90,11,2012,0,,,
917,a,1,7240,2,2010,0,,,
918,a,3,18710,4,2015,0,,,
919,a,1,2620,,,1,45,2009,"Feb,May,Aug,Nov"
920,a,1,850,2,2012,1,40,2014,"Jan,Apr,Jul,Oct"
921,a,1,840,9,2006,0,,,
922,d,1,2110,3,2006,0,,,
923,a,1,280,9,2008,0,,,
924,a,1,6420,4,2011,1,1,2012,"Jan,Apr,Jul,Oct"
925,c,1,470,3,2007,1,1,2012,"Jan,Apr,Jul,Oct"
926,d,3,5150,3,2011,1,13,2010,"Jan,Apr,Jul,Oct"
927,a,1,480,,,0,,,
928,d,3,1090,,,1,31,2013,"Feb,May,Aug,Nov"
929,a,3,4820,9,2013,0,,,
930,a,1,70,,,0,,,
931,a,3,1480,9,2011,1,1,2012,"Jan,Apr,Jul,Oct"
932,a,1,15700,,,1,13,2010,"Jan,Apr,Jul,Oct"
933,a,3,6270,2,2005,0,,,
934,a,3,5460,,,1,14,2011,"Jan,Apr,Jul,Oct"
935,a,3,22350,6,2010,0,,,
936,a,1,580,2,2008,0,,,
937,d,1,2810,,,1,10,2014,"Jan,Apr,Jul,Oct"
938,a,1,2820,9,2009,0,,,
939,d,1,1340,,,0,,,
940,d,3,6470,9,2012,0,,,
941,a,1,1200,12,2011,1,31,2013,"Jan,Apr,Jul,Oct"
942,d,3,6860,,,1,18,2011,"Jan,Apr,Jul,Oct"
943,d,3,18020,,,0,,,
944,c,1,1670,7,2015,0,,,
945,a,3,12480,3,2011,0,,,
946,a,1,2220,12,2011,1,14,2015,"Jan,Apr,Jul,Oct"
947,a,1,460,3,2014,1,13,2010,"Jan,Apr,Jul,Oct"
948,b,2,1430,,,0,,,
949,a,1,870,3,2006,0,,,
950,a,1,8460,11,1994,0,,,
951,d,3,710,,,1,40,2011,"Jan,Apr,Jul,Oct"
952,d,3,6300,10,2013,0,,,
953,a,1,19830,4,2006,1,22,2011,"Mar,Jun,Sept,Dec"
954,a,1,390,2,2013,1,10,2014,"Jan,Apr,Jul,Oct"
955,d,3,1690,7,2009,1,36,2013,"Mar,Jun,Sept,Dec"
956,a,1,2330,10,2014,1,18,2011,"Feb,May,Aug,Nov"
957,d,3,1420,11,2012,0,,,
958,a,1,440,11,2013,0,,,
959,a,3,1060,12,2005,0,,,
960,d,1,8990,,,1,31,2009,"Feb,May,Aug,Nov"
961,d,3,9430,,,0,,,
962,c,1,260,,,0,,,
963,a,3,23620,11,2013,0,,,
964,a,1,270,,,1,5,2013,"Feb,May,Aug,Nov"
965,a,3,110,,,0,,,
966,a,1,760,2,2008,0,,,
967,a,3,3560,9,2013,1,36,2013,"Jan,Apr,Jul,Oct"
968,c,1,1190,,,0,,,
969,a,3,600,11,1999,1,10,2013,"Jan,Apr,Jul,Oct"
970,a,1,910,12,2014,1,37,2009,"Jan,Apr,Jul,Oct"
971,c,1,1140,5,2011,1,14,2012,"Mar,Jun,Sept,Dec"
972,a,1,14960,,,0,,,
973,d,3,330,,,1,28,2012,"Jan,Apr,Jul,Oct"
974,a,1,150,3,2011,1,40,2014,"Jan,Apr,Jul,Oct"
975,a,3,9630,,,1,14,2011,"Jan,Apr,Jul,Oct"
976,a,1,4180,,,0,,,
977,a,1,520,9,2005,1,13,2010,"Jan,Apr,Jul,Oct"
978,c,3,3890,,,0,,,
979,a,3,2270,11,2005,1,14,2011,"Jan,Apr,Jul,Oct"
980,a,1,4420,9,2005,0,,,
981,d,3,2620,11,2002,0,,,
982,d,1,21930,,,0,,,
983,a,1,40,3,2014,1,1,2014,"Jan,Apr,Jul,Oct"
984,c,1,440,,,1,1,2013,"Jan,Apr,Jul,Oct"
985,c,3,490,5,2007,1,13,2010,"Jan,Apr,Jul,Oct"
986,a,1,620,10,2014,1,18,2014,"Feb,May,Aug,Nov"
987,c,1,1690,6,2007,0,,,
988,a,1,30,11,2012,0,,,
989,a,1,1640,6,2006,1,40,2011,"Jan,Apr,Jul,Oct"
990,d,1,20930,,,0,,,
991,a,1,1010,,,0,,,
992,a,1,2480,7,1990,0,,,
993,d,3,3460,10,2013,1,10,2014,"Jan,Apr,Jul,Oct"
994,a,1,2290,7,2011,1,1,2012,"Jan,Apr,Jul,Oct"
995,d,1,6560,12,2013,0,,,
996,c,1,2870,7,2015,1,13,2010,"Jan,Apr,Jul,Oct"
997,d,3,5840,7,2010,1,37,2009,"Jan,Apr,Jul,Oct"
998,a,1,780,9,2005,1,5,2013,"Feb,May,Aug,Nov"
999,d,3,15140,2,2002,1,37,2009,"Jan,Apr,Jul,Oct"
1000,a,3,2230,5,2009,1,40,2014,"Jan,Apr,Jul,Oct"
1001,c,1,19640,,,1,14,2011,"Jan,Apr,Jul,Oct"
1002,d,3,1130,11,2008,0,,,
1003,a,1,170,7,2013,1,27,2013,"Jan,Apr,Jul,Oct"
1004,d,3,970,,,1,9,2011,"Mar,Jun,Sept,Dec"
1005,a,1,6480,,,0,,,
1006,c,3,3890,11,2006,1,5,2013,"Feb,May,Aug,Nov"
1007,c,3,4180,9,2012,0,,,
1008,a,3,30,9,2010,0,,,
1009,a,1,230,7,2004,1,10,2014,"Jan,Apr,Jul,Oct"
1010,d,3,4610,6,2010,1,18,2010,"Feb,May,Aug,Nov"
1011,a,3,490,9,2012,1,18,2011,"Feb,May,Aug,Nov"
1012,d,3,6330,6,2004,1,39,2010,"Jan,Apr,Jul,Oct"
1013,a,1,630,2,2015,1,31,2013,"Feb,May,Aug,Nov"
1014,a,3,210,,,1,31,2013,"Jan,Apr,Jul,Oct"
1015,d,3,9910,12,2010,1,9,2011,"Mar,Jun,Sept,Dec"
1016,c,3,550,,,1,35,2010,"Mar,Jun,Sept,Dec"
1017,c,1,110,11,2008,0,,,
1018,c,3,140,9,2012,0,,,
1019,d,3,2740,7,2014,1,13,2010,"Jan,Apr,Jul,Oct"
1020,a,1,40,8,2015,0,,,
1021,a,1,1080,5,2011,0,,,
1022,a,3,1520,,,0,,,
1023,c,1,3740,2,2002,1,14,2011,"Jan,Apr,Jul,Oct"
1024,c,3,1990,1,2012,0,,,
1025,a,1,720,11,2009,0,,,
1026,c,1,450,6,2011,1,48,2012,"Mar,Jun,Sept,Dec"
1027,a,3,190,6,2008,1,40,2011,"Jan,Apr,Jul,Oct"
1028,a,1,150,,,1,31,2013,"Jan,Apr,Jul,Oct"
1029,a,1,1590,3,2006,0,,,
1030,a,1,36410,4,2008,0,,,
1031,d,1,590,5,2001,0,,,
1032,d,3,270,2,2013,1,40,2012,"Jan,Apr,Jul,Oct"
1033,a,1,7680,3,2006,0,,,
1034,a,1,13750,4,2015,0,,,
1035,a,1,27150,,,0,,,
1036,d,3,9560,,,1,36,2013,"Jan,Apr,Jul,Oct"
1037,a,3,150,,,0,,,
1038,d,1,17290,10,2013,0,,,
1039,a,3,70,6,1990,1,22,2012,"Mar,Jun,Sept,Dec"
1040,a,1,4030,2,2013,1,10,2014,"Jan,Apr,Jul,Oct"
1041,c,1,1600,8,2013,1,40,2014,"Jan,Apr,Jul,Oct"
1042,a,1,3440,,,1,31,2013,"Feb,May,Aug,Nov"
1043,c,1,420,3,2006,0,,,
1044,c,1,240,4,2015,1,13,2010,"Jan,Apr,Jul,Oct"
1045,a,3,26990,12,2013,0,,,
1046,d,3,29070,4,2005,0,,,
1047,a,1,3750,,,1,45,2009,"Feb,May,Aug,Nov"
1048,d,3,1860,9,2012,1,40,2012,"Jan,Apr,Jul,Oct"
1049,a,1,370,7,2012,1,14,2011,"Jan,Apr,Jul,Oct"
1050,d,3,13170,8,2014,1,9,2011,"Mar,Jun,Sept,Dec"
1051,c,1,200,7,1998,1,1,2012,"Jan,Apr,Jul,Oct"
1052,a,3,5080,,,1,31,2013,"Feb,May,Aug,Nov"
1053,a,1,1710,7,2015,0,,,
1054,a,3,13190,,,1,45,2013,"Feb,May,Aug,Nov"
1055,c,1,1980,4,2009,0,,,
1056,d,3,5350,,,1,40,2012,"Jan,Apr,Jul,Oct"
1057,d,3,3230,11,2011,0,,,
1058,a,3,180,,,1,35,2010,"Mar,Jun,Sept,Dec"
1059,c,1,3380,4,2013,0,,,
1060,a,3,3430,,,1,31,2013,"Feb,May,Aug,Nov"
1061,d,3,8110,,,0,,,
1062,d,1,190,9,2012,1,40,2012,"Feb,May,Aug,Nov"
1063,a,3,6250,,,0,,,
1064,a,3,420,,,0,,,
1065,a,1,1290,,,1,35,2011,"Mar,Jun,Sept,Dec"
1066,a,1,3350,,,0,,,
1067,d,3,12020,7,2009,0,,,
1068,d,3,5010,,,1,5,2013,"Jan,Apr,Jul,Oct"
1069,a,3,18050,,,1,14,2011,"Jan,Apr,Jul,Oct"
1070,c,3,400,10,2008,0,,,
1071,a,1,820,3,2012,1,35,2012,"Mar,Jun,Sept,Dec"
1072,a,3,5380,8,2015,1,5,2010,"Feb,May,Aug,Nov"
1073,a,3,1710,,,1,44,2012,"Jan,Apr,Jul,Oct"
1074,c,3,3330,10,2001,1,14,2011,"Jan,Apr,Jul,Oct"
1075,a,3,1410,10,2013,0,,,
1076,a,3,90,,,1,1,2013,"Jan,Apr,Jul,Oct"
1077,a,1,3750,11,2001,1,35,2010,"Mar,Jun,Sept,Dec"
1078,d,3,670,,,1,40,2011,"Jan,Apr,Jul,Oct"
1079,a,1,16680,,,1,37,2009,"Jan,Apr,Jul,Oct"
1080,a,1,2410,,,1,40,2014,"Jan,Apr,Jul,Oct"
1081,b,1,400,3,2006,0,,,
1082,c,1,440,4,2002,0,,,
1083,d,3,11540,,,1,5,2013,"Feb,May,Aug,Nov"
1084,a,1,190,,,1,13,2010,"Jan,Apr,Jul,Oct"
1085,c,1,4030,2,2015,0,,,
1086,a,1,180,11,2013,1,18,2011,"Feb,May,Aug,Nov"
1087,d,3,2210,11,2011,0,,,
1088,a,1,4300,3,2009,1,27,2013,"Jan,Apr,Jul,Oct"
1089,d,1,5220,5,2009,0,,,
1090,a,1,330,,,1,14,2011,"Jan,Apr,Jul,Oct"
1091,a,3,9990,,,0,,,
1092,a,1,300,7,2000,1,40,2014,"Jan,Apr,Jul,Oct"
1093,c,3,10450,6,2009,0,,,
1094,d,1,2380,3,2013,1,40,2014,"Jan,Apr,Jul,Oct"
1095,a,1,690,6,2007,1,14,2011,"Jan,Apr,Jul,Oct"
1096,a,3,1130,,,1,10,2014,"Mar,Jun,Sept,Dec"
1097,b,2,720,3,2002,0,,,
1098,a,1,1830,11,2004,0,,,
1099,a,3,200,4,2013,1,14,2013,"Jan,Apr,Jul,Oct"
1100,a,1,540,,,1,14,2011,"Jan,Apr,Jul,Oct"
1101,d,3,4060,9,2012,0,,,
1102,a,1,850,11,2012,1,40,2014,"Jan,Apr,Jul,Oct"
1103,d,3,1340,10,2006,1,5,2013,"Feb,May,Aug,Nov"
1104,d,1,260,2,2012,1,14,2011,"Jan,Apr,Jul,Oct"
1105,c,3,330,11,2008,1,5,2013,"Feb,May,Aug,Nov"
1106,a,3,5330,9,2011,1,31,2013,"Jan,Apr,Jul,Oct"
1107,a,1,1400,6,2012,1,13,2010,"Jan,Apr,Jul,Oct"
1108,a,1,540,4,2004,0,,,
1109,c,1,3490,4,2011,1,22,2012,"Jan,Apr,Jul,Oct"
1110,c,3,900,9,2010,0,,,
1111,a,1,1900,6,2014,1,31,2013,"Jan,Apr,Jul,Oct"
1112,c,3,1880,4,2006,0,,,
1113,a,3,9260,,,0,,,
1114,a,3,870,,,0,,,
1115,d,3,5350,,,1,22,2012,"Mar,Jun,Sept,Dec"